"Code postal *"	"Age *"
"[75008, 75010]"	"[20, 30]"
"[75001, 75001]"	"[31, 40]"
"[75005, 75007]"	"[31, 40]"
"[75001, 75003]"	"[20, 30]"
"[75008, 75010]"	"[20, 30]"
"[75002, 75004]"	"[31, 40]"
"[75001, 75001]"	"[31, 40]"
"[75002, 75004]"	"[31, 40]"
"[75001, 75001]"	"[31, 40]"
"[75004, 75004]"	"[20, 30]"
"[75005, 75007]"	"[20, 30]"
"[75008, 75010]"	"[31, 40]"
"[75001, 75003]"	"[20, 30]"
"[75005, 75007]"	"[20, 30]"
"[75008, 75010]"	"[20, 30]"
"[75008, 75010]"	"[31, 40]"
"[75005, 75007]"	"[31, 40]"
"[75004, 75004]"	"[20, 30]"
"[75002, 75004]"	"[31, 40]"
"[75001, 75003]"	"[20, 30]"
"[75005, 75007]"	"[31, 40]"
