"Code postal *"	"Age *"
"[75005, 75010]"	"[20, 40]"
"[75001, 75004]"	"[20, 40]"
"[75005, 75010]"	"[20, 40]"
"[75001, 75004]"	"[20, 40]"
"[75005, 75010]"	"[20, 40]"
"[75001, 75004]"	"[20, 40]"
"[75001, 75004]"	"[20, 40]"
"[75001, 75004]"	"[20, 40]"
"[75001, 75004]"	"[20, 40]"
"[75001, 75004]"	"[20, 40]"
"[75005, 75010]"	"[20, 40]"
"[75005, 75010]"	"[20, 40]"
"[75001, 75004]"	"[20, 40]"
"[75005, 75010]"	"[20, 40]"
"[75005, 75010]"	"[20, 40]"
"[75005, 75010]"	"[20, 40]"
"[75005, 75010]"	"[20, 40]"
"[75001, 75004]"	"[20, 40]"
"[75001, 75004]"	"[20, 40]"
"[75001, 75004]"	"[20, 40]"
"[75005, 75010]"	"[20, 40]"
